[{
  "id": 24601,
  "text": "Jerry",
  "avatarUrl": "http://www.gravatar.com/avatar/f28f558e5858a9680fe0a46fab215dcb?s=80&d=identicon"
}, {
  "id": 24602,
  "text": "Jimmy",
  "avatarUrl": "http://www.gravatar.com/avatar/e64c7d89f26bd1972efa854d13d7dd61?s=80&d=identicon"
}]
